chromosome	start	end	copyNumber	bafCount	observedBAF	baf	segmentStartSupport	segmentEndSupport	method	depthWindowCount	gcContent	minStart	maxStart	minorAlleleCopyNumber	majorAlleleCopyNumber
chr1	1	123605522	2.0630	21941	1.0000	1.0049	TELOMERE	CENTROMERE	BAF_WEIGHTED	108494	0.4225	1	1	0.0000	2.0630
chr1	123605523	215632000	3.0832	13894	0.6661	0.6672	CENTROMERE	NONE	BAF_WEIGHTED	62197	0.4059	123605523	123605523	1.0261	2.0571
chr1	215632001	219274000	0.9645	681	1.0000	1.0000	NONE	NONE	BAF_WEIGHTED	3542	0.3729	215632001	215632001	0.0000	0.9645
chr1	219274001	231390000	3.0830	2290	0.6635	0.6645	NONE	NONE	BAF_WEIGHTED	10936	0.4276	219274001	219274001	1.0343	2.0488
chr1	231390001	233371000	1.0154	250	1.0000	1.0099	NONE	NONE	BAF_WEIGHTED	1887	0.4134	231390001	231390001	0.0000	1.0154
chr1	233371001	235228000	3.0801	444	0.6700	0.6711	NONE	NONE	BAF_WEIGHTED	1752	0.4247	233371001	233371001	1.0131	2.0670
chr1	235228001	240335000	0.9856	1592	1.0000	1.0026	NONE	NONE	BAF_WEIGHTED	4942	0.3959	235228001	235228001	0.0000	0.9856
chr1	240335001	241336000	2.9510	298	0.6741	0.6752	NONE	NONE	BAF_WEIGHTED	976	0.3957	240334001	240335001	0.9584	1.9926
chr1	241336001	245009000	0.9887	743	1.0000	1.0000	NONE	NONE	BAF_WEIGHTED	3063	0.4067	241336001	241336001	0.0000	0.9887
chr1	245009001	248956422	3.0304	1023	0.6705	0.6716	NONE	TELOMERE	BAF_WEIGHTED	3344	0.4143	245009001	245009001	0.9951	2.0353
chr2	1	1863000	2.9390	450	0.6724	0.6736	TELOMERE	NONE	BAF_WEIGHTED	1628	0.4482	1	1	0.9594	1.9796
chr2	1863001	28696000	3.6840	6176	0.7258	0.7270	NONE	NONE	BAF_WEIGHTED	25448	0.4217	1863001	1863001	1.0057	2.6782
chr2	28696001	36251000	2.9919	2032	0.6679	0.6691	NONE	NONE	BAF_WEIGHTED	7118	0.4014	28696001	28696001	0.9901	2.0018
chr2	36251001	36445000	2.4023	31	0.5741	0.5747	NONE	NONE	BAF_WEIGHTED	187	0.3949	36251001	36251001	1.0216	1.3807
chr2	36445001	93139350	3.0202	12436	0.6667	0.6678	NONE	CENTROMERE	BAF_WEIGHTED	48451	0.3978	36445001	36445001	1.0034	2.0168
chr2	93139351	140949000	3.0177	7349	0.6647	0.6658	CENTROMERE	NONE	BAF_WEIGHTED	38677	0.4107	93139351	93139351	1.0084	2.0093
chr2	140949001	141413000	1.8852	77	0.5540	0.5546	NONE	NONE	BAF_WEIGHTED	449	0.3489	140949001	140949001	0.8396	1.0456
chr2	141413001	219142000	2.9936	13024	0.6655	0.6666	NONE	NONE	BAF_WEIGHTED	73391	0.3791	141413001	141413001	0.9981	1.9955
chr2	219142001	223291000	1.0113	768	1.0000	1.0054	NONE	NONE	BAF_WEIGHTED	3937	0.4106	219142001	219142001	0.0000	1.0113
chr2	223291001	223563000	3.0883	39	0.6719	0.6730	NONE	NONE	BAF_WEIGHTED	258	0.3819	223291001	223291001	1.0098	2.0785
chr2	223563001	223848000	1.0249	1	1.0000	1.0099	NONE	NONE	BAF_WEIGHTED	280	0.4135	223563001	223563001	0.0000	1.0249
chr2	223848001	242193529	3.0525	4278	0.6660	0.6671	NONE	TELOMERE	BAF_WEIGHTED	16533	0.4410	223848001	223848001	1.0163	2.0362
chr3	1	92214015	2.8974	18330	0.6713	0.6725	TELOMERE	CENTROMERE	BAF_WEIGHTED	84372	0.4017	1	1	0.9490	1.9484
chr3	92214016	94583000	2.8672	123	0.6522	0.6533	CENTROMERE	NONE	BAF_WEIGHTED	702	0.3753	92214016	92214016	0.9941	1.8730
chr3	94583001	96862000	2.1686	695	0.5785	0.5792	NONE	NONE	BAF_WEIGHTED	2117	0.3454	94583001	94583001	0.9125	1.2561
chr3	96862001	198295559	2.9186	19897	0.6673	0.6685	NONE	TELOMERE	BAF_WEIGHTED	93573	0.3911	96862001	96862001	0.9676	1.9510
chr4	1	10796000	2.0579	2417	1.0000	1.0049	TELOMERE	NONE	BAF_WEIGHTED	7982	0.4931	1	1	0.0000	2.0579
chr4	10796001	11151000	1.3494	68	1.0000	1.0075	NONE	NONE	BAF_WEIGHTED	324	0.3943	10796001	10796001	0.0000	1.3494
chr4	11151001	50726025	1.9643	7520	1.0000	1.0051	NONE	CENTROMERE	BAF_WEIGHTED	36047	0.3793	11151001	11151001	0.0000	1.9643
chr4	50726026	91447000	1.9498	7108	1.0000	1.0052	CENTROMERE	NONE	BAF_WEIGHTED	36210	0.3751	50726026	50726026	0.0000	1.9498
chr4	91447001	91778000	0.9524	41	1.0000	1.0000	NONE	NONE	BAF_WEIGHTED	296	0.3470	91447001	91447001	0.0000	0.9524
chr4	91778001	190214555	1.9485	21452	1.0000	1.0052	NONE	TELOMERE	BAF_WEIGHTED	90881	0.3712	91778001	91778001	0.0000	1.9485
chr5	1	18885000	3.1414	5360	0.6869	0.6881	TELOMERE	NONE	BAF_WEIGHTED	17211	0.4156	1	1	0.9798	2.1616
chr5	18885001	20695000	2.0607	752	0.5615	0.5621	NONE	NONE	BAF_WEIGHTED	1728	0.3477	18885001	18885001	0.9024	1.1583
chr5	20695001	21169000	3.0409	97	0.6829	0.6841	NONE	NONE	BAF_WEIGHTED	213	0.3525	20695001	20833001	0.9606	2.0803
chr5	21169001	29417000	2.0715	2051	0.5636	0.5642	NONE	NONE	BAF_WEIGHTED	7309	0.3478	21169001	21169001	0.9028	1.1687
chr5	29417001	48272853	3.1705	3290	0.6893	0.6905	NONE	CENTROMERE	BAF_WEIGHTED	15405	0.3860	29417001	29417001	0.9813	2.1892
chr5	48272854	51673000	3.0844	518	0.6811	0.6822	CENTROMERE	NONE	BAF_WEIGHTED	1175	0.3599	48272854	48272854	0.9801	2.1043
chr5	51673001	84125000	2.0070	6359	0.5512	0.5020	NONE	NONE	BAF_WEIGHTED	28476	0.3914	51673001	51673001	0.9994	1.0076
chr5	84125001	97162000	3.1205	2114	0.6887	0.6900	NONE	NONE	BAF_WEIGHTED	12246	0.3637	84125001	84125001	0.9674	2.1531
chr5	97162001	101473000	1.9665	582	0.5501	0.5152	NONE	NONE	BAF_WEIGHTED	3615	0.3564	97162001	97162001	0.9534	1.0131
chr5	101473001	181538259	3.0048	15779	0.6670	0.6681	NONE	TELOMERE	BAF_WEIGHTED	74131	0.4039	101473001	101473001	0.9973	2.0075
chr6	1	1746000	3.0855	269	0.6619	0.6630	TELOMERE	NONE	BAF_WEIGHTED	1370	0.4417	1	1	1.0399	2.0456
chr6	1746001	2156000	1.9980	139	0.5440	0.5018	NONE	NONE	BAF_WEIGHTED	393	0.3927	1746001	1746001	0.9955	1.0025
chr6	2156001	59191910	3.0890	14885	0.6464	0.6474	NONE	CENTROMERE	BAF_WEIGHTED	51703	0.4165	2156001	2156001	1.0892	1.9999
chr6	59191911	161733000	3.0075	21093	0.6130	0.6138	CENTROMERE	NONE	BAF_WEIGHTED	94029	0.3792	59191911	59191911	1.1615	1.8460
chr6	161733001	162405000	2.6023	169	0.6405	0.6416	NONE	NONE	BAF_WEIGHTED	601	0.3996	161733001	161733001	0.9328	1.6695
chr6	162405001	162421000	1.9817	54	0.8765	0.8804	NONE	NONE	BAF_WEIGHTED	16	0.3978	162405001	162405001	0.2371	1.7446
chr6	162421001	162568000	1.0986	118	0.8136	0.8194	NONE	NONE	BAF_WEIGHTED	146	0.4012	162421001	162421001	0.1984	0.9002
chr6	162568001	162623000	0.2812	47	0.9059	1.0000	NONE	NONE	BAF_WEIGHTED	55	0.3904	162568001	162568001	0.0000	0.2812
chr6	162623001	163155000	1.9086	200	0.5789	0.5797	NONE	NONE	BAF_WEIGHTED	513	0.3812	162623001	162623001	0.8021	1.1065
chr6	163155001	170805979	2.9992	2222	0.6102	0.6109	NONE	TELOMERE	BAF_WEIGHTED	6751	0.4351	163155001	163155001	1.1669	1.8323
chr7	1	59498943	4.6121	14581	0.6286	0.6292	TELOMERE	CENTROMERE	BAF_WEIGHTED	51443	0.4066	1	1	1.7102	2.9019
chr7	59498944	159345973	4.7103	18452	0.6156	0.6161	CENTROMERE	TELOMERE	BAF_WEIGHTED	84574	0.4023	59498944	59498944	1.8082	2.9021
chr8	1	5738000	2.6395	2164	0.6820	0.6834	TELOMERE	NONE	BAF_WEIGHTED	4774	0.4142	1	1	0.8356	1.8040
chr8	5738001	44955504	2.9383	9937	0.6534	0.6545	NONE	CENTROMERE	BAF_WEIGHTED	34331	0.4127	5738001	5738001	1.0153	1.9230
chr8	44955505	78411000	2.9716	6051	0.6688	0.6700	CENTROMERE	NONE	BAF_WEIGHTED	30248	0.3869	44955505	44955505	0.9807	1.9908
chr8	78411001	78599000	2.2879	1	0.5094	0.5520	NONE	NONE	BAF_WEIGHTED	178	0.3472	78411001	78411001	1.0250	1.2629
chr8	78599001	145138636	3.0554	12795	0.6733	0.6744	NONE	TELOMERE	BAF_WEIGHTED	61606	0.3961	78599001	78599001	0.9947	2.0607
chr9	1	44377362	2.3296	8545	0.8564	0.8595	TELOMERE	CENTROMERE	BAF_WEIGHTED	35648	0.3876	1	1	0.3272	2.0024
chr9	44377363	138394717	2.3600	13957	0.8614	0.8645	CENTROMERE	TELOMERE	BAF_WEIGHTED	63581	0.4267	44377363	44377363	0.3197	2.0403
chr10	1	40640101	2.9110	8927	0.6847	0.6860	TELOMERE	CENTROMERE	BAF_WEIGHTED	36260	0.4096	1	1	0.9139	1.9970
chr10	40640102	74442000	2.9395	6301	0.6623	0.6634	CENTROMERE	NONE	BAF_WEIGHTED	27790	0.4005	40640102	40640102	0.9895	1.9500
chr10	74442001	74672000	2.0150	5	0.5077	0.5037	NONE	NONE	BAF_WEIGHTED	220	0.3667	74442001	74442001	1.0000	1.0150
chr10	74672001	133797422	3.0072	12479	0.6637	0.6648	NONE	TELOMERE	BAF_WEIGHTED	54473	0.4265	74672001	74672001	1.0080	1.9993
chr11	1	52751710	3.0340	13499	0.6688	0.6699	TELOMERE	CENTROMERE	BAF_WEIGHTED	44453	0.4078	1	1	1.0015	2.0326
chr11	52751711	135086622	3.0495	16289	0.6672	0.6683	CENTROMERE	TELOMERE	BAF_WEIGHTED	72584	0.4185	52751711	52751711	1.0115	2.0380
chr12	1	16521000	4.0836	3103	0.5381	0.5116	TELOMERE	NONE	BAF_WEIGHTED	14782	0.4242	1	1	1.9944	2.0892
chr12	16521001	16674000	2.9981	1	0.5122	0.5520	NONE	NONE	BAF_WEIGHTED	152	0.3572	16521001	16521001	1.3431	1.6550
chr12	16674001	35977329	3.9254	3764	0.5378	0.5094	NONE	CENTROMERE	BAF_WEIGHTED	16493	0.3821	16674001	16674001	1.9256	1.9998
chr12	35977330	61933000	4.0497	4798	0.5369	0.5195	CENTROMERE	NONE	BAF_WEIGHTED	22388	0.4081	35977330	35977330	1.9461	2.1037
chr12	61933001	62319000	2.0123	54	1.0000	1.0050	NONE	NONE	BAF_WEIGHTED	364	0.3682	61933001	61933001	0.0000	2.0123
chr12	62319001	62851000	3.9961	180	0.5413	0.5005	NONE	NONE	BAF_WEIGHTED	515	0.3947	62319001	62319001	1.9961	2.0000
chr12	62851001	66929000	6.0044	760	0.6602	0.6607	NONE	NONE	BAF_WEIGHTED	3660	0.3942	62851001	62851001	2.0371	3.9673
chr12	66929001	75577000	2.0050	2246	1.0000	1.0050	NONE	NONE	BAF_WEIGHTED	8161	0.3744	66929001	66929001	0.0000	2.0050
chr12	75577001	75741000	2.6773	45	1.0000	1.0038	NONE	NONE	BAF_WEIGHTED	157	0.3803	75577001	75577001	0.0000	2.6773
chr12	75741001	133275309	2.0236	11264	1.0000	1.0050	NONE	TELOMERE	BAF_WEIGHTED	54138	0.4151	75741001	75741001	0.0000	2.0236
chr13	1	17025623	6.2189	0	0.0000	0.7187	TELOMERE	CENTROMERE	LONG_ARM	0	0.0000	1	1	1.7493	4.4695
chr13	17025624	19790000	6.2189	92	0.7180	0.7187	CENTROMERE	NONE	BAF_WEIGHTED	545	0.4261	1	17025624	1.7493	4.4695
chr13	19790001	21520000	8.4456	369	0.7987	0.7994	NONE	NONE	BAF_WEIGHTED	1622	0.4257	19790001	19790001	1.6944	6.7513
chr13	21520001	23126000	6.2378	395	0.7237	0.7245	NONE	NONE	BAF_WEIGHTED	1467	0.4000	21520001	21520001	1.7187	4.5191
chr13	23126001	23569000	8.2546	148	0.7958	0.7966	NONE	NONE	BAF_WEIGHTED	421	0.4063	23126001	23126001	1.6792	6.5754
chr13	23569001	25378000	10.4710	634	0.8324	0.8331	NONE	NONE	BAF_WEIGHTED	1504	0.4233	23569001	23569001	1.7477	8.7233
chr13	25378001	28326000	8.4357	851	0.7921	0.7928	NONE	NONE	BAF_WEIGHTED	2851	0.4211	25378001	25378001	1.7481	6.6875
chr13	28326001	29843000	6.3594	340	0.7266	0.7273	NONE	NONE	BAF_WEIGHTED	1421	0.4146	28326001	28326001	1.7342	4.6252
chr13	29843001	51337000	4.4090	4480	0.6015	0.6019	NONE	NONE	BAF_WEIGHTED	20322	0.3957	29843001	29843001	1.7551	2.6538
chr13	51337001	74567000	6.2448	4476	0.7326	0.7334	NONE	NONE	BAF_WEIGHTED	21782	0.3558	51337001	51337001	1.6649	4.5799
chr13	74567001	75100000	4.4411	72	0.6093	0.6097	NONE	NONE	BAF_WEIGHTED	506	0.3736	74567001	74567001	1.7332	2.7080
chr13	75100001	76428000	6.4952	465	0.7326	0.7333	NONE	NONE	BAF_WEIGHTED	1266	0.3755	75100001	75100001	1.7324	4.7628
chr13	76428001	76969000	5.6251	75	0.8443	0.8455	NONE	NONE	BAF_WEIGHTED	513	0.3879	76428001	76428001	0.8689	4.7562
chr13	76969001	78946000	6.5215	165	0.7293	0.7300	NONE	NONE	BAF_WEIGHTED	1870	0.3727	76969001	76969001	1.7606	4.7609
chr13	78946001	86504000	4.3159	2389	0.6129	0.6134	NONE	NONE	BAF_WEIGHTED	7156	0.3516	78946001	78946001	1.6686	2.6472
chr13	86504001	87760000	3.2661	305	0.5459	0.5522	NONE	NONE	BAF_WEIGHTED	1069	0.3411	86504001	86504001	1.4625	1.8036
chr13	87760001	93809000	4.2783	1544	0.6106	0.6111	NONE	NONE	BAF_WEIGHTED	5811	0.3537	87760001	87760001	1.6637	2.6145
chr13	93809001	94760000	3.5810	215	0.7617	0.7632	NONE	NONE	BAF_WEIGHTED	915	0.3868	93808001	93809001	0.8481	2.7329
chr13	94760001	95044000	4.4701	117	0.5952	0.5956	NONE	NONE	BAF_WEIGHTED	276	0.3982	94760001	94760001	1.8076	2.6625
chr13	95044001	97246000	6.5570	363	0.7286	0.7293	NONE	NONE	BAF_WEIGHTED	2101	0.3967	95044001	95044001	1.7749	4.7820
chr13	97246001	97401000	8.4954	35	0.7909	0.7916	NONE	NONE	BAF_WEIGHTED	152	0.3973	97246001	97246001	1.7705	6.7248
chr13	97401001	101502000	10.6512	739	0.8340	0.8347	NONE	NONE	BAF_WEIGHTED	3814	0.4224	97401001	97401001	1.7610	8.8903
chr13	101502001	103863000	8.3477	471	0.7923	0.7930	NONE	NONE	BAF_WEIGHTED	2272	0.3758	101502001	101502001	1.7277	6.6200
chr13	103863001	105220000	6.1684	314	0.7265	0.7272	NONE	NONE	BAF_WEIGHTED	1311	0.3559	103863001	103863001	1.6828	4.4856
chr13	105220001	106352000	8.4603	238	0.7959	0.7966	NONE	NONE	BAF_WEIGHTED	1090	0.3745	105220001	105220001	1.7212	6.7391
chr13	106352001	106793000	10.8267	102	0.8308	0.8314	NONE	NONE	BAF_WEIGHTED	430	0.4078	106352001	106352001	1.8252	9.0015
chr13	106793001	109517000	8.2627	728	0.7929	0.7936	NONE	NONE	BAF_WEIGHTED	2601	0.3817	106793001	106793001	1.7057	6.5571
chr13	109517001	109841000	10.7434	102	0.8218	0.8225	NONE	NONE	BAF_WEIGHTED	302	0.4231	109517001	109517001	1.9074	8.8360
chr13	109841001	110027000	8.6360	20	0.7910	0.7916	NONE	NONE	BAF_WEIGHTED	186	0.4175	109841001	109841001	1.7995	6.8365
chr13	110027001	114364328	6.5507	1386	0.7301	0.7308	NONE	TELOMERE	BAF_WEIGHTED	3532	0.4789	110027001	110027001	1.7632	4.7876
chr14	1	17086761	2.9070	0	0.0000	0.6626	TELOMERE	CENTROMERE	LONG_ARM	0	0.0000	1	1	0.9807	1.9263
chr14	17086762	107043718	2.9070	15055	0.6615	0.6626	CENTROMERE	TELOMERE	BAF_WEIGHTED	79810	0.4068	17086762	17086762	0.9807	1.9263
chr15	1	18362626	2.0434	0	0.0000	0.5306	TELOMERE	CENTROMERE	LONG_ARM	0	0.0000	1	1	0.9591	1.0843
chr15	18362627	101991189	2.0434	15566	0.5511	0.5306	CENTROMERE	TELOMERE	BAF_WEIGHTED	70515	0.4207	18362627	18362627	0.9591	1.0843
chr16	1	37295919	2.3648	7087	0.5765	0.5771	TELOMERE	CENTROMERE	BAF_WEIGHTED	26265	0.4578	1	1	1.0000	1.3648
chr16	37295920	90338345	2.2615	10418	0.6008	0.6017	CENTROMERE	TELOMERE	BAF_WEIGHTED	39696	0.4357	37295920	37295920	0.9007	1.3608
chr17	1	5269000	2.0843	1219	1.0000	1.0048	TELOMERE	NONE	BAF_WEIGHTED	4301	0.4942	1	1	0.0000	2.0843
chr17	5269001	5507000	1.3164	177	1.0000	1.0077	NONE	NONE	BAF_WEIGHTED	233	0.4317	5269001	5269001	0.0000	1.3164
chr17	5507001	24849829	2.0406	3708	1.0000	1.0050	NONE	CENTROMERE	BAF_WEIGHTED	13610	0.4516	5507001	5507001	0.0000	2.0406
chr17	24849830	83257441	2.0817	11012	1.0000	1.0049	CENTROMERE	TELOMERE	BAF_WEIGHTED	49207	0.4521	24849830	24849830	0.0000	2.0817
chr18	1	18161052	2.0213	4057	1.0000	1.0050	TELOMERE	CENTROMERE	BAF_WEIGHTED	13201	0.4097	1	1	0.0000	2.0213
chr18	18161053	50592000	2.0287	5553	1.0000	1.0050	CENTROMERE	NONE	BAF_WEIGHTED	28126	0.3945	18161053	18161053	0.0000	2.0287
chr18	50592001	51962000	-0.0185	0	0.0000	1.0000	NONE	NONE	BAF_WEIGHTED	1311	0.4136	50592001	50592001	0.0000	-0.0185
chr18	51962001	80373285	1.9953	6421	1.0000	1.0051	NONE	TELOMERE	BAF_WEIGHTED	26824	0.3917	51962001	51962001	0.0000	1.9953
chr19	1	25844926	2.9166	5166	0.6511	0.6522	TELOMERE	CENTROMERE	BAF_WEIGHTED	20026	0.4968	1	1	1.0144	1.9022
chr19	25844927	58617616	2.0471	6163	0.5532	0.5364	CENTROMERE	TELOMERE	BAF_WEIGHTED	26750	0.4742	25844927	25844927	0.9491	1.0980
chr20	1	24479000	3.0126	5434	0.6670	0.6681	TELOMERE	NONE	BAF_WEIGHTED	23030	0.4153	1	1	0.9999	2.0126
chr20	24479001	28237289	4.0540	224	0.5409	0.5113	NONE	CENTROMERE	BAF_WEIGHTED	1244	0.4628	24479001	24479001	1.9813	2.0727
chr20	28237290	64444167	4.1710	5674	0.5387	0.5210	CENTROMERE	TELOMERE	BAF_WEIGHTED	30830	0.4570	28237290	28237290	1.9979	2.1731
chr21	1	11890183	1.9890	0	0.0000	0.5350	TELOMERE	CENTROMERE	LONG_ARM	0	0.0000	1	1	0.9249	1.0641
chr21	11890184	46709983	1.9890	8789	0.5523	0.5350	CENTROMERE	TELOMERE	BAF_WEIGHTED	29949	0.4048	11890184	11890184	0.9249	1.0641
chr22	1	14004552	2.0670	0	0.0000	1.0049	TELOMERE	CENTROMERE	LONG_ARM	0	0.6845	1	1	0.0000	2.0670
chr22	14004553	50818468	2.0670	7169	1.0000	1.0049	CENTROMERE	TELOMERE	BAF_WEIGHTED	28719	0.4808	14004553	14004553	0.0000	2.0670
chrX	1	41828000	1.0013	0	0.0000	1.0000	TELOMERE	NONE	BAF_WEIGHTED	36340	0.3933	1	1	0.0000	1.0013
chrX	41828001	56730000	2.2198	0	0.0000	1.0000	NONE	NONE	BAF_WEIGHTED	12274	0.4112	41828001	41828001	0.0000	2.2198
chrX	56730001	60509060	0.9917	0	0.0000	1.0000	NONE	CENTROMERE	BAF_WEIGHTED	1438	0.3941	56730001	56730001	0.0000	0.9917
chrX	60509061	81130000	2.1877	0	0.0000	1.0000	CENTROMERE	NONE	BAF_WEIGHTED	15551	0.3957	60509061	60509061	0.0000	2.1877
chrX	81130001	81410000	1.1502	0	0.0000	1.0000	NONE	NONE	BAF_WEIGHTED	253	0.3649	81130001	81130001	0.0000	1.1502
chrX	81410001	156040895	2.1456	0	0.0000	1.0000	NONE	TELOMERE	BAF_WEIGHTED	62726	0.3855	81410001	81410001	0.0000	2.1456
chrY	1	10430491	1.8455	0	0.0000	1.0000	TELOMERE	CENTROMERE	BAF_WEIGHTED	2601	0.4083	1	1	0.0000	1.8455
chrY	10430492	11041000	1.0342	0	0.0000	1.0000	CENTROMERE	NONE	BAF_WEIGHTED	199	0.4556	10430492	10430492	0.0000	1.0342
chrY	11041001	57227415	1.7774	0	0.0000	1.0000	NONE	TELOMERE	BAF_WEIGHTED	6847	0.3864	11041001	11048001	0.0000	1.7774
