chromosome	start	end	copyNumber	bafCount	observedBAF	baf	segmentStartSupport	segmentEndSupport	method	depthWindowCount	gcContent	minStart	maxStart	minorAlleleCopyNumber	majorAlleleCopyNumber
chr1	1	9495000	1.9976	1730	1.0000	1.0000	TELOMERE	NONE	BAF_WEIGHTED	6613	0.5017	1	1	0.0000	1.9976
chr1	9495001	36663000	2.9729	4505	1.0000	1.0000	NONE	NONE	BAF_WEIGHTED	24444	0.4741	9495001	9498001	0.0000	2.9729
chr1	36663001	39015000	1.9233	455	1.0000	1.0000	NONE	NONE	BAF_WEIGHTED	2241	0.4679	36663001	36663001	0.0000	1.9233
chr1	39015001	40771000	2.8816	231	1.0000	1.0000	NONE	NONE	BAF_WEIGHTED	1627	0.4421	39015001	39015001	0.0000	2.8816
chr1	40771001	40933000	4.7952	37	1.0000	1.0000	NONE	NONE	BAF_WEIGHTED	152	0.5070	40771001	40771001	0.0000	4.7952
chr1	40933001	51527000	2.9632	1515	1.0000	1.0000	NONE	NONE	BAF_WEIGHTED	9730	0.4358	40933001	40933001	0.0000	2.9632
chr1	51527001	51719000	4.0393	1	1.0000	1.0000	NONE	NONE	BAF_WEIGHTED	185	0.4109	51527001	51527001	0.0000	4.0393
chr1	51719001	52103000	2.9465	49	1.0000	1.0000	NONE	NONE	BAF_WEIGHTED	375	0.4167	51719001	51719001	0.0000	2.9465
chr1	52103001	58065000	1.9820	2017	1.0000	1.0000	NONE	NONE	BAF_WEIGHTED	5683	0.4338	52103001	52103001	0.0000	1.9820
chr1	58065001	58560000	1.0069	53	1.0000	1.0000	NONE	NONE	BAF_WEIGHTED	451	0.4111	58065001	58065001	0.0000	1.0069
chr1	58560001	69606000	2.0268	2177	1.0000	1.0000	NONE	NONE	BAF_WEIGHTED	10445	0.3957	58560001	58560001	0.0000	2.0268
chr1	69606001	76544000	1.0174	1816	1.0000	1.0000	NONE	NONE	BAF_WEIGHTED	6487	0.3626	69606001	69606001	0.0000	1.0174
chr1	76544001	84446000	2.0685	1526	1.0000	1.0000	NONE	NONE	BAF_WEIGHTED	7174	0.3672	76544001	76544001	0.0000	2.0685
chr1	84446001	89625000	5.1192	751	1.0000	1.0000	NONE	NONE	BAF_WEIGHTED	4792	0.3857	84446001	84449001	0.0000	5.1192
chr1	89625001	93885000	4.0136	985	1.0000	1.0000	NONE	NONE	BAF_WEIGHTED	3966	0.3984	89625001	89625001	0.0000	4.0136
chr1	93885001	94099000	5.2064	63	1.0000	1.0000	NONE	NONE	BAF_WEIGHTED	204	0.4302	93885001	93885001	0.0000	5.2064
chr1	94099001	96000000	4.2140	341	1.0000	1.0000	NONE	NONE	BAF_WEIGHTED	1813	0.3963	94099001	94099001	0.0000	4.2140
chr1	96000001	117676000	2.0362	4341	1.0000	1.0000	NONE	NONE	BAF_WEIGHTED	19886	0.3879	96000001	96000001	0.0000	2.0362
chr1	117676001	118322000	4.0855	258	0.5329	0.5105	NONE	NONE	BAF_WEIGHTED	610	0.3865	117676001	117676001	2.0000	2.0855
chr1	118322001	123605522	5.0778	171	0.5972	0.5972	NONE	CENTROMERE	BAF_WEIGHTED	1474	0.3997	118322001	118322001	2.0453	3.0325
chr1	123605523	176935000	2.9502	5665	0.6597	0.6597	CENTROMERE	NONE	BAF_WEIGHTED	26092	0.4175	123605523	123605523	1.0039	1.9464
chr1	176935001	177255000	3.9605	67	0.6966	0.6966	NONE	NONE	BAF_WEIGHTED	315	0.4125	176935001	176935001	1.2016	2.7589
chr1	177255001	203609000	3.0761	5495	0.6288	0.6288	NONE	NONE	BAF_WEIGHTED	24638	0.3842	177255001	177255001	1.1419	1.9343
chr1	203609001	203769000	4.8396	13	0.7498	0.7498	NONE	NONE	BAF_WEIGHTED	157	0.4664	203609001	203609001	1.2111	3.6285
chr1	203769001	248956422	3.0764	10009	0.6342	0.6342	NONE	TELOMERE	BAF_WEIGHTED	41390	0.4145	203769001	203769001	1.1254	1.9511
chr2	1	10174000	2.9735	3024	1.0000	1.0000	TELOMERE	NONE	BAF_WEIGHTED	9538	0.4301	1	1	0.0000	2.9735
chr2	10174001	10195000	0.9760	16	1.0000	1.0000	NONE	NONE	BAF_WEIGHTED	19	0.5132	10174001	10174001	0.0000	0.9760
chr2	10195001	25596000	1.8332	3326	1.0000	1.0000	NONE	NONE	BAF_WEIGHTED	14562	0.4132	10195001	10195001	0.0000	1.8332
chr2	25596001	32001000	2.8554	1474	1.0000	1.0000	NONE	NONE	BAF_WEIGHTED	6065	0.4383	25596001	25596001	0.0000	2.8554
chr2	32001001	44942000	2.0536	3254	1.0000	1.0000	NONE	NONE	BAF_WEIGHTED	11562	0.3960	32001001	32001001	0.0000	2.0536
chr2	44942001	63601000	3.0223	5018	0.6753	0.6753	NONE	NONE	BAF_WEIGHTED	17742	0.3915	44942001	44943001	0.9815	2.0408
chr2	63601001	84544000	2.0205	3640	1.0000	1.0000	NONE	NONE	BAF_WEIGHTED	19569	0.3950	63601001	63601001	0.0000	2.0205
chr2	84544001	84881000	4.1016	3	1.0000	1.0000	NONE	NONE	BAF_WEIGHTED	323	0.4012	84544001	84544001	0.0000	4.1016
chr2	84881001	85129000	5.3718	41	0.7045	0.7045	NONE	NONE	BAF_WEIGHTED	236	0.4338	84881001	84881001	1.5874	3.7845
chr2	85129001	93139350	3.6154	533	0.5490	0.5428	NONE	CENTROMERE	BAF_WEIGHTED	2392	0.4443	85129001	85129001	1.6530	1.9623
chr2	93139351	102032000	3.5699	1223	0.5557	0.5559	CENTROMERE	NONE	BAF_WEIGHTED	5549	0.4413	93139351	93139351	1.5852	1.9846
chr2	102032001	102463000	2.8071	13	0.6429	0.6429	NONE	NONE	BAF_WEIGHTED	419	0.4088	102031001	102032001	1.0024	1.8047
chr2	102463001	113284000	1.0004	1841	0.9999	0.9999	NONE	NONE	BAF_WEIGHTED	8623	0.4124	102463001	102463001	0.0001	1.0003
chr2	113284001	114130000	0.0008	5	1.0000	1.0000	NONE	NONE	BAF_WEIGHTED	447	0.4039	113284001	113326001	0.0000	0.0008
chr2	114130001	141301000	2.0516	5337	0.9998	0.9998	NONE	NONE	BAF_WEIGHTED	23964	0.4020	114130001	114130001	0.0005	2.0511
chr2	141301001	142118000	1.0398	282	0.9994	1.0000	NONE	NONE	BAF_WEIGHTED	801	0.3496	141301001	141301001	0.0000	1.0398
chr2	142118001	159970000	2.1281	3126	1.0000	1.0000	NONE	NONE	BAF_WEIGHTED	16863	0.3736	142118001	142118001	0.0000	2.1281
chr2	159970001	160304000	4.4541	32	1.0000	1.0000	NONE	NONE	BAF_WEIGHTED	307	0.4032	159970001	159970001	0.0000	4.4541
chr2	160304001	162412000	2.1757	58	1.0000	1.0000	NONE	NONE	BAF_WEIGHTED	1964	0.3718	160304001	160304001	0.0000	2.1757
chr2	162412001	191798000	3.7061	4948	0.5597	0.5578	NONE	NONE	BAF_WEIGHTED	27722	0.3757	162412001	162412001	1.6387	2.0673
chr2	191798001	193087000	1.6898	44	1.0000	1.0000	NONE	NONE	BAF_WEIGHTED	1205	0.3500	191798001	191798001	0.0000	1.6898
chr2	193087001	196855000	1.1718	151	1.0000	1.0000	NONE	NONE	BAF_WEIGHTED	3494	0.3572	193087001	193087001	0.0000	1.1718
chr2	196855001	216669000	2.1594	2970	0.5556	0.5530	NONE	NONE	BAF_WEIGHTED	18737	0.3869	196855001	196855001	0.9654	1.1941
chr2	216669001	225249000	2.6851	1526	0.6116	0.6122	NONE	NONE	BAF_WEIGHTED	8016	0.4203	216669001	216669001	1.0414	1.6437
chr2	225249001	231526000	4.7190	1110	0.6613	0.6613	NONE	NONE	BAF_WEIGHTED	5956	0.4013	225249001	225249001	1.5984	3.1206
chr2	231526001	242193529	3.7841	2157	0.5881	0.5871	NONE	TELOMERE	BAF_WEIGHTED	9166	0.4720	231526001	231526001	1.5625	2.2216
chr3	1	11400000	3.0851	3675	1.0000	1.0000	TELOMERE	NONE	BAF_WEIGHTED	10637	0.4047	1	1	0.0000	3.0851
chr3	11400001	11599000	3.8211	14	1.0000	1.0000	NONE	NONE	BAF_WEIGHTED	184	0.4502	11400001	11400001	0.0000	3.8211
chr3	11599001	57823000	3.0620	8467	1.0000	1.0000	NONE	NONE	BAF_WEIGHTED	43185	0.4167	11599001	11599001	0.0000	3.0620
chr3	57823001	62762000	2.0170	949	1.0000	1.0000	NONE	NONE	BAF_WEIGHTED	4696	0.4064	57823001	57824001	0.0000	2.0170
chr3	62762001	62946000	3.0585	37	0.6286	0.6286	NONE	NONE	BAF_WEIGHTED	173	0.3909	62762001	62762001	1.1359	1.9226
chr3	62946001	72772000	2.0324	2348	1.0000	1.0000	NONE	NONE	BAF_WEIGHTED	8979	0.4021	62946001	62946001	0.0000	2.0324
chr3	72772001	73236000	2.9804	63	0.6585	0.6585	NONE	NONE	BAF_WEIGHTED	451	0.4153	72772001	72772001	1.0178	1.9626
chr3	73236001	73691000	2.0593	141	1.0000	1.0000	NONE	NONE	BAF_WEIGHTED	440	0.4126	73236001	73236001	0.0000	2.0593
chr3	73691001	75356000	3.1221	323	0.6579	0.6579	NONE	NONE	BAF_WEIGHTED	1460	0.3723	73691001	73691001	1.0681	2.0540
chr3	75356001	78095000	2.0020	645	1.0000	1.0000	NONE	NONE	BAF_WEIGHTED	2085	0.3579	75356001	75670001	0.0000	2.0020
chr3	78095001	78658000	3.0804	100	0.6547	0.6548	NONE	NONE	BAF_WEIGHTED	535	0.3624	78095001	78095001	1.0635	2.0169
chr3	78658001	81963000	2.0309	523	1.0000	1.0000	NONE	NONE	BAF_WEIGHTED	2886	0.3511	78658001	78658001	0.0000	2.0309
chr3	81963001	82134000	3.1108	0	0.0000	0.6528	NONE	NONE	BAF_WEIGHTED	164	0.3632	81963001	81963001	1.0799	2.0309
chr3	82134001	82659000	2.0429	114	1.0000	1.0000	NONE	NONE	BAF_WEIGHTED	388	0.3506	82134001	82134001	0.0000	2.0429
chr3	82659001	83852000	3.0646	202	0.6561	0.6561	NONE	NONE	BAF_WEIGHTED	1132	0.3384	82659001	82659001	1.0541	2.0105
chr3	83852001	84210000	2.0247	1	1.0000	1.0000	NONE	NONE	BAF_WEIGHTED	340	0.3410	83852001	83852001	0.0000	2.0247
chr3	84210001	85434000	3.0390	333	0.6614	0.6614	NONE	NONE	BAF_WEIGHTED	1157	0.3428	84210001	84210001	1.0291	2.0098
chr3	85434001	85636000	1.9794	10	1.0000	1.0000	NONE	NONE	BAF_WEIGHTED	200	0.3335	85434001	85434001	0.0000	1.9794
chr3	85636001	92214015	3.0366	502	0.6578	0.6578	NONE	CENTROMERE	BAF_WEIGHTED	4562	0.3538	85636001	85636001	1.0393	1.9974
chr3	92214016	127664000	2.0417	8312	1.0000	1.0000	CENTROMERE	NONE	BAF_WEIGHTED	31359	0.3841	92214016	92214016	0.0000	2.0417
chr3	127664001	128768000	3.7597	120	1.0000	1.0000	NONE	NONE	BAF_WEIGHTED	1044	0.4740	127664001	127664001	0.0000	3.7597
chr3	128768001	135807000	3.1837	1358	1.0000	1.0000	NONE	NONE	BAF_WEIGHTED	6260	0.4181	128768001	128768001	0.0000	3.1837
chr3	135807001	142761000	4.3202	1227	1.0000	1.0000	NONE	NONE	BAF_WEIGHTED	6328	0.4111	135807001	135807001	0.0000	4.3202
chr3	142761001	161998000	3.2958	4585	1.0000	1.0000	NONE	NONE	BAF_WEIGHTED	18014	0.3775	142761001	142761001	0.0000	3.2958
chr3	161998001	169263000	1.1535	1660	1.0000	1.0000	NONE	NONE	BAF_WEIGHTED	6711	0.3495	161998001	161998001	0.0000	1.1535
chr3	169263001	184040000	2.9927	2539	0.6157	0.6157	NONE	NONE	BAF_WEIGHTED	13997	0.3839	169263001	169263001	1.1502	1.8425
chr3	184040001	193123000	2.1827	2787	0.5587	0.5593	NONE	NONE	BAF_WEIGHTED	8651	0.4033	184040001	184040001	0.9619	1.2208
chr3	193123001	197864000	1.1576	1231	1.0000	1.0000	NONE	NONE	BAF_WEIGHTED	4026	0.4427	193123001	193123001	0.0000	1.1576
chr3	197864001	198295559	1.8646	0	0.0000	0.6208	NONE	TELOMERE	BAF_WEIGHTED	218	0.4135	197864001	197864001	0.7070	1.1576
chr4	1	12100000	0.9840	3098	1.0000	1.0000	TELOMERE	NONE	BAF_WEIGHTED	9128	0.4777	1	1	0.0000	0.9840
chr4	12100001	14261000	2.5937	608	1.0000	1.0000	NONE	NONE	BAF_WEIGHTED	2036	0.3857	12100001	12100001	0.0000	2.5937
chr4	14261001	24787000	1.6941	2017	1.0000	1.0000	NONE	NONE	BAF_WEIGHTED	9985	0.3860	14261001	14261001	0.0000	1.6941
chr4	24787001	43041000	3.7665	3966	0.5624	0.5628	NONE	NONE	BAF_WEIGHTED	17546	0.3794	24787001	24787001	1.6469	2.1197
chr4	43041001	50726025	2.8866	1279	0.6825	0.6825	NONE	CENTROMERE	BAF_WEIGHTED	5657	0.3642	43041001	43041001	0.9165	1.9701
chr4	50726026	55016000	2.9932	603	0.6829	0.6829	CENTROMERE	NONE	BAF_WEIGHTED	2859	0.4058	50726026	50726026	0.9490	2.0442
chr4	55016001	77502000	2.1721	5270	0.9195	0.9195	NONE	NONE	BAF_WEIGHTED	20340	0.3683	55016001	55016001	0.1748	1.9974
chr4	77502001	88024000	2.9363	1972	0.6786	0.6786	NONE	NONE	BAF_WEIGHTED	9649	0.3822	77502001	77502001	0.9436	1.9927
chr4	88024001	94337000	3.9123	2292	0.5384	0.5123	NONE	NONE	BAF_WEIGHTED	5850	0.3609	88024001	88024001	1.9081	2.0042
chr4	94337001	94605000	4.8987	42	0.5897	0.5897	NONE	NONE	BAF_WEIGHTED	260	0.3711	94337001	94337001	2.0099	2.8888
chr4	94605001	95258000	4.0473	253	0.5311	0.5052	NONE	NONE	BAF_WEIGHTED	616	0.3749	94605001	94605001	2.0026	2.0447
chr4	95258001	97433000	5.9780	585	0.6789	0.6789	NONE	NONE	BAF_WEIGHTED	2048	0.3569	95258001	95259001	1.9196	4.0584
chr4	97433001	136899000	3.9158	7060	0.5384	0.5147	NONE	NONE	BAF_WEIGHTED	36103	0.3637	97433001	97433001	1.9004	2.0154
chr4	136899001	139404000	2.0087	547	0.9994	0.9994	NONE	NONE	BAF_WEIGHTED	2395	0.3734	136899001	136899001	0.0012	2.0076
chr4	139404001	140523000	3.7617	115	0.5347	0.5344	NONE	NONE	BAF_WEIGHTED	1059	0.4117	139404001	139404001	1.7514	2.0103
chr4	140523001	190214555	1.9653	11064	0.9998	0.9998	NONE	TELOMERE	BAF_WEIGHTED	45727	0.3774	140523001	140523001	0.0003	1.9649
chr5	1	7917000	4.7819	2098	0.5978	0.5978	TELOMERE	NONE	BAF_WEIGHTED	6822	0.4443	1	1	1.9234	2.8584
chr5	7917001	38270000	3.9736	8277	0.5383	0.5111	NONE	NONE	BAF_WEIGHTED	27726	0.3793	7917001	7917001	1.9428	2.0308
chr5	38270001	48272853	3.1206	1259	0.6714	0.6714	NONE	CENTROMERE	BAF_WEIGHTED	7424	0.3773	38270001	38270001	1.0253	2.0953
chr5	48272854	107869000	2.0533	11236	1.0000	1.0000	CENTROMERE	NONE	BAF_WEIGHTED	51548	0.3774	48272854	48272854	0.0000	2.0533
chr5	107869001	108041000	0.0007	2	1.0000	1.0000	NONE	NONE	BAF_WEIGHTED	171	0.3616	107869001	107869001	0.0000	0.0007
chr5	108041001	139276000	2.0968	4937	0.9999	0.9999	NONE	NONE	BAF_WEIGHTED	29089	0.3920	108041001	108041001	0.0002	2.0967
chr5	139276001	181538259	2.9667	8233	1.0000	1.0000	NONE	TELOMERE	BAF_WEIGHTED	38746	0.4203	139276001	139276001	0.0000	2.9667
chr6	1	8742000	4.3466	0	0.0000	0.5039	TELOMERE	NONE	BAF_WEIGHTED	7979	0.4291	1	1	2.1564	2.1902
chr6	8742001	19727000	2.3892	1	0.9167	0.9167	NONE	NONE	BAF_WEIGHTED	10547	0.4088	8742001	8742001	0.1990	2.1902
chr6	19727001	20019000	3.2669	0	0.0000	0.7631	NONE	NONE	BAF_WEIGHTED	272	0.3968	19727001	19727001	0.7739	2.4930
chr6	20019001	20410000	4.0291	0	0.0000	0.6187	NONE	NONE	BAF_WEIGHTED	376	0.4226	20019001	20019001	1.5362	2.4930
chr6	20410001	46641000	3.2435	3	0.7686	0.7686	NONE	NONE	BAF_WEIGHTED	24137	0.4337	20410001	20410001	0.7505	2.4930
chr6	46641001	59191910	1.8759	0	0.0000	1.0000	NONE	CENTROMERE	BAF_WEIGHTED	9991	0.3756	46641001	46641001	0.0000	1.8759
chr6	59191911	61712000	2.8989	0	0.0000	0.7063	CENTROMERE	NONE	BAF_WEIGHTED	445	0.3619	59191911	59191911	0.8514	2.0475
chr6	61712001	61887000	3.9232	0	0.0000	0.7830	NONE	NONE	BAF_WEIGHTED	164	0.3474	61712001	61712001	0.8514	3.0718
chr6	61887001	63907000	2.8380	603	0.7000	0.7000	NONE	NONE	BAF_WEIGHTED	1815	0.3618	61887001	61887001	0.8514	1.9866
chr6	63907001	69527000	1.8614	2165	0.5592	0.5592	NONE	NONE	BAF_WEIGHTED	5201	0.3450	63907001	63907001	0.8205	1.0409
chr6	69527001	70472000	3.9578	464	0.7778	0.7778	NONE	NONE	BAF_WEIGHTED	895	0.3675	69527001	69527001	0.8794	3.0784
chr6	70472001	70606000	5.6783	37	0.8425	0.8425	NONE	NONE	BAF_WEIGHTED	132	0.3743	70472001	70472001	0.8943	4.7840
chr6	70606001	70729000	6.8107	69	0.8800	0.8800	NONE	NONE	BAF_WEIGHTED	122	0.4014	70606001	70606001	0.8173	5.9934
chr6	70729001	71304000	2.9060	80	0.6935	0.6935	NONE	NONE	BAF_WEIGHTED	500	0.3832	70729001	70729001	0.8907	2.0153
chr6	71304001	71794000	5.0290	195	0.8198	0.8198	NONE	NONE	BAF_WEIGHTED	464	0.3696	71304001	71304001	0.9062	4.1227
chr6	71794001	72007000	4.1154	110	1.0000	1.0000	NONE	NONE	BAF_WEIGHTED	196	0.3630	71794001	71794001	0.0000	4.1154
chr6	72007001	72060000	5.1017	12	0.8041	0.8041	NONE	NONE	BAF_WEIGHTED	48	0.3509	72007001	72012001	0.9994	4.1022
chr6	72060001	72637000	8.9960	198	0.8896	0.8896	NONE	NONE	BAF_WEIGHTED	527	0.3591	72060001	72060001	0.9932	8.0028
chr6	72637001	73161000	5.0391	87	0.7979	0.7979	NONE	NONE	BAF_WEIGHTED	495	0.3690	72637001	72637001	1.0184	4.0207
chr6	73161001	73181000	0.9810	13	1.0000	1.0000	NONE	NONE	BAF_WEIGHTED	20	0.4068	73161001	73161001	0.0000	0.9810
chr6	73181001	77450000	2.8642	814	0.6523	0.6523	NONE	NONE	BAF_WEIGHTED	3865	0.3755	73181001	73181001	0.9958	1.8684
chr6	77450001	78441000	1.8615	17	1.0000	1.0000	NONE	NONE	BAF_WEIGHTED	815	0.3611	77450001	77450001	0.0000	1.8615
chr6	78441001	84216000	2.9041	1514	0.6538	0.6538	NONE	NONE	BAF_WEIGHTED	5219	0.3704	78441001	78441001	1.0055	1.8986
chr6	84216001	88845000	0.9990	1039	1.0000	1.0000	NONE	NONE	BAF_WEIGHTED	4148	0.3868	84216001	84216001	0.0000	0.9990
chr6	88845001	90088000	3.8330	208	1.0000	1.0000	NONE	NONE	BAF_WEIGHTED	1202	0.4186	88845001	88845001	0.0000	3.8330
chr6	90088001	94187000	0.9934	1058	1.0000	1.0000	NONE	NONE	BAF_WEIGHTED	3917	0.3593	90088001	90088001	0.0000	0.9934
chr6	94187001	96386000	0.0009	2	1.0000	1.0000	NONE	NONE	BAF_WEIGHTED	1962	0.3463	94187001	94187001	0.0000	0.0009
chr6	96386001	98389000	0.9940	254	1.0000	1.0000	NONE	NONE	BAF_WEIGHTED	1899	0.3620	96386001	96386001	0.0000	0.9940
chr6	98389001	98407000	1.9698	0	0.0000	1.0000	NONE	NONE	BAF_WEIGHTED	12	0.3464	98389001	98395001	0.0000	1.9698
chr6	98407001	101318000	3.0282	691	1.0000	1.0000	NONE	NONE	BAF_WEIGHTED	2686	0.3753	98407001	98407001	0.0000	3.0282
chr6	101318001	101891000	1.9947	73	1.0000	1.0000	NONE	NONE	BAF_WEIGHTED	513	0.3458	101318001	101318001	0.0000	1.9947
chr6	101891001	105846000	0.0008	5	1.0000	1.0000	NONE	NONE	BAF_WEIGHTED	3670	0.3609	101891001	101891001	0.0000	0.0008
chr6	105846001	115429000	2.9711	1887	1.0000	1.0000	NONE	NONE	BAF_WEIGHTED	9008	0.3969	105846001	105846001	0.0000	2.9711
chr6	115429001	115890000	4.0692	47	1.0000	1.0000	NONE	NONE	BAF_WEIGHTED	432	0.3630	115429001	115429001	0.0000	4.0692
chr6	115890001	120422000	4.9007	877	1.0000	1.0000	NONE	NONE	BAF_WEIGHTED	4267	0.3753	115890001	115890001	0.0000	4.9007
chr6	120422001	122159000	3.8333	375	1.0000	1.0000	NONE	NONE	BAF_WEIGHTED	1599	0.3607	120422001	120422001	0.0000	3.8333
chr6	122159001	123185000	4.8059	217	1.0000	1.0000	NONE	NONE	BAF_WEIGHTED	959	0.3666	122159001	122159001	0.0000	4.8059
chr6	123185001	161362000	2.8576	9328	1.0000	1.0000	NONE	NONE	BAF_WEIGHTED	36272	0.3908	123185001	123185001	0.0000	2.8576
chr6	161362001	170805979	1.8182	2157	0.9664	0.9664	NONE	TELOMERE	BAF_WEIGHTED	8499	0.4277	161362001	161362001	0.0611	1.7571
chr7	1	10391000	2.8966	3330	1.0000	1.0000	TELOMERE	NONE	BAF_WEIGHTED	8397	0.4477	1	1	0.0000	2.8966
chr7	10391001	23515000	2.1262	3528	1.0000	1.0000	NONE	NONE	BAF_WEIGHTED	12447	0.3700	10391001	10391001	0.0000	2.1262
chr7	23515001	25976000	1.0169	726	1.0000	1.0000	NONE	NONE	BAF_WEIGHTED	2313	0.4038	23515001	23515001	0.0000	1.0169
chr7	25976001	57153000	2.9882	6341	0.6641	0.6641	NONE	NONE	BAF_WEIGHTED	27770	0.4087	25976001	25976001	1.0036	1.9845
chr7	57153001	57330000	6.3963	22	0.7248	0.7248	NONE	NONE	BAF_WEIGHTED	144	0.4464	57153001	57153001	1.7606	4.6357
chr7	57330001	57519000	8.5326	3	0.8391	0.8391	NONE	NONE	BAF_WEIGHTED	166	0.4433	57330001	57330001	1.3729	7.1597
chr7	57519001	59498943	4.7320	12	0.6059	0.6059	NONE	CENTROMERE	BAF_WEIGHTED	186	0.3790	57519001	57519001	1.8646	2.8674
chr7	59498944	62455000	6.8331	37	0.5613	0.5613	CENTROMERE	NONE	BAF_WEIGHTED	199	0.3661	59498944	59498944	2.9977	3.8354
chr7	62455001	66436000	4.7320	926	0.5976	0.5976	NONE	NONE	BAF_WEIGHTED	2402	0.4105	62455001	62455001	1.9042	2.8278
chr7	66436001	75436000	2.7419	1299	0.6737	0.6737	NONE	NONE	BAF_WEIGHTED	6896	0.4482	66436001	66440001	0.8946	1.8473
chr7	75436001	76515000	4.4680	271	0.8131	0.8131	NONE	NONE	BAF_WEIGHTED	783	0.4989	75436001	75523001	0.8351	3.6329
chr7	76515001	93923000	5.1405	3143	0.8072	0.8072	NONE	NONE	BAF_WEIGHTED	15580	0.3630	76515001	76998001	0.9909	4.1497
chr7	93923001	94601000	6.1358	13	0.8365	0.8365	NONE	NONE	BAF_WEIGHTED	652	0.3696	93923001	93923001	1.0032	5.1326
chr7	94601001	112955000	4.9542	3937	0.8076	0.8076	NONE	NONE	BAF_WEIGHTED	16299	0.4097	94601001	94601001	0.9534	4.0008
chr7	112955001	121096000	6.7848	1019	0.8511	0.8511	NONE	NONE	BAF_WEIGHTED	7705	0.3598	112955001	112955001	1.0106	5.7742
chr7	121096001	130164000	4.6712	1723	0.7893	0.7893	NONE	NONE	BAF_WEIGHTED	8189	0.3875	121096001	121096001	0.9840	3.6872
chr7	130164001	152317000	5.4799	4308	0.8220	0.8220	NONE	NONE	BAF_WEIGHTED	19577	0.4136	130164001	130164001	0.9757	4.5042
chr7	152317001	152342000	11.3755	0	0.0000	0.9142	NONE	NONE	BAF_WEIGHTED	25	0.3938	152317001	152317001	0.9757	10.3998
chr7	152342001	159345973	7.6305	2085	0.8788	0.8788	NONE	TELOMERE	BAF_WEIGHTED	5921	0.4577	152342001	152342001	0.9250	6.7055
chr8	1	29495000	1.9645	10911	1.0000	1.0000	TELOMERE	NONE	BAF_WEIGHTED	25557	0.4158	1	1	0.0000	1.9645
chr8	29495001	29837000	2.8899	116	1.0000	1.0000	NONE	NONE	BAF_WEIGHTED	334	0.4298	29495001	29495001	0.0000	2.8899
chr8	29837001	44955504	1.9782	2325	1.0000	1.0000	NONE	CENTROMERE	BAF_WEIGHTED	13163	0.4070	29837001	29837001	0.0000	1.9782
chr8	44955505	49714000	1.9726	323	1.0000	1.0000	CENTROMERE	NONE	BAF_WEIGHTED	3359	0.4183	44955505	44955505	0.0000	1.9726
chr8	49714001	51513000	0.0008	0	0.0000	1.0000	NONE	NONE	BAF_WEIGHTED	1688	0.3611	49714001	49714001	0.0000	0.0008
chr8	51513001	53789000	2.7438	241	1.0000	1.0000	NONE	NONE	BAF_WEIGHTED	2123	0.3951	51513001	51513001	0.0000	2.7438
chr8	53789001	54212000	1.6171	0	0.0000	1.0000	NONE	NONE	BAF_WEIGHTED	391	0.4154	53789001	53789001	0.0000	1.6171
chr8	54212001	64223000	2.6740	2141	1.0000	1.0000	NONE	NONE	BAF_WEIGHTED	9332	0.3877	54212001	54212001	0.0000	2.6740
chr8	64223001	64459000	4.6611	1	0.9911	0.9911	NONE	NONE	BAF_WEIGHTED	208	0.3695	64223001	64223001	0.0415	4.6196
chr8	64459001	65005000	3.7132	44	1.0000	1.0000	NONE	NONE	BAF_WEIGHTED	517	0.3738	64459001	64459001	0.0000	3.7132
chr8	65005001	101300000	2.6487	5785	1.0000	1.0000	NONE	NONE	BAF_WEIGHTED	33773	0.3804	65005001	65006001	0.0000	2.6487
chr8	101300001	101365000	3.6335	0	0.0000	1.0000	NONE	NONE	BAF_WEIGHTED	64	0.4186	101300001	101300001	0.0000	3.6335
chr8	101365001	101517000	5.9753	11	1.0000	1.0000	NONE	NONE	BAF_WEIGHTED	142	0.4281	101365001	101365001	0.0000	5.9753
chr8	101517001	101552000	8.0101	2	0.9972	0.9972	NONE	NONE	BAF_WEIGHTED	35	0.3981	101517001	101517001	0.0220	7.9880
chr8	101552001	111668000	3.7134	1475	1.0000	1.0000	NONE	NONE	BAF_WEIGHTED	9592	0.3738	101552001	101552001	0.0000	3.7134
chr8	111668001	122089000	4.8551	2351	1.0000	1.0000	NONE	NONE	BAF_WEIGHTED	9864	0.3703	111668001	111668001	0.0000	4.8551
chr8	122089001	123078000	5.0751	333	1.0000	1.0000	NONE	NONE	BAF_WEIGHTED	955	0.4116	122089001	122089001	0.0000	5.0751
chr8	123078001	145138636	5.9421	5773	1.0000	1.0000	NONE	TELOMERE	BAF_WEIGHTED	19652	0.4341	123078001	123078001	0.0000	5.9421
chr9	1	15484000	3.9676	4965	0.5393	0.5146	TELOMERE	NONE	BAF_WEIGHTED	14392	0.3821	1	1	1.9258	2.0418
chr9	15484001	21772000	2.1498	2130	1.0000	1.0000	NONE	NONE	BAF_WEIGHTED	5817	0.3892	15484001	15484001	0.0000	2.1498
chr9	21772001	22011000	0.0005	0	0.0000	1.0000	NONE	NONE	BAF_WEIGHTED	218	0.3992	21772001	21772001	0.0000	0.0005
chr9	22011001	44377362	2.0579	3321	1.0000	1.0000	NONE	CENTROMERE	BAF_WEIGHTED	15253	0.3915	22011001	22011001	0.0000	2.0579
chr9	44377363	107161000	2.9809	7004	0.6654	0.6654	CENTROMERE	NONE	BAF_WEIGHTED	35639	0.4045	44377363	44377363	0.9975	1.9835
chr9	107161001	128973000	1.9992	4863	0.9996	0.9996	NONE	NONE	BAF_WEIGHTED	20691	0.4300	107161001	107161001	0.0007	1.9985
chr9	128973001	130603000	2.5546	271	0.7054	0.7054	NONE	NONE	BAF_WEIGHTED	1443	0.5156	128973001	128973001	0.7527	1.8019
chr9	130603001	131372000	3.3489	93	0.5506	0.5534	NONE	NONE	BAF_WEIGHTED	690	0.4968	130603001	130603001	1.4957	1.8533
chr9	131372001	138394717	2.6242	1255	0.7062	0.7062	NONE	TELOMERE	BAF_WEIGHTED	4973	0.5287	131372001	131372001	0.7709	1.8533
chr10	1	4834000	1.9218	1150	1.0000	1.0000	TELOMERE	NONE	BAF_WEIGHTED	4492	0.4285	1	1	0.0000	1.9218
chr10	4834001	5134000	4.3492	92	1.0000	1.0000	NONE	NONE	BAF_WEIGHTED	201	0.3995	4834001	4834001	0.0000	4.3492
chr10	5134001	20291000	1.9576	4131	1.0000	1.0000	NONE	NONE	BAF_WEIGHTED	14453	0.4109	5134001	5134001	0.0000	1.9576
chr10	20291001	21612000	3.8407	174	1.0000	1.0000	NONE	NONE	BAF_WEIGHTED	1224	0.4045	20291001	20297001	0.0000	3.8407
chr10	21612001	31812000	1.9895	2596	1.0000	1.0000	NONE	NONE	BAF_WEIGHTED	9493	0.4054	21612001	21612001	0.0000	1.9895
chr10	31812001	32006000	5.1726	0	0.0000	0.6154	NONE	NONE	BAF_WEIGHTED	180	0.3905	31812001	31812001	1.9895	3.1831
chr10	32006001	40640101	4.0341	712	0.5418	0.5132	NONE	CENTROMERE	BAF_WEIGHTED	6120	0.4016	32006001	32006001	1.9636	2.0705
chr10	40640102	42526000	3.9021	155	0.5347	0.5183	CENTROMERE	NONE	BAF_WEIGHTED	265	0.3890	40640102	40640102	1.8797	2.0223
chr10	42526001	45087000	5.7128	566	0.6611	0.6611	NONE	NONE	BAF_WEIGHTED	2194	0.4478	42526001	42532001	1.9360	3.7769
chr10	45087001	58819000	2.9924	2613	0.6626	0.6626	NONE	NONE	BAF_WEIGHTED	10645	0.3809	45087001	45087001	1.0097	1.9827
chr10	58819001	62510000	2.0663	726	1.0000	1.0000	NONE	NONE	BAF_WEIGHTED	3537	0.3830	58819001	58819001	0.0000	2.0663
chr10	62510001	62671000	2.8498	14	1.0000	1.0000	NONE	NONE	BAF_WEIGHTED	151	0.4100	62510001	62510001	0.0000	2.8498
chr10	62671001	120046000	1.9987	10549	1.0000	1.0000	NONE	NONE	BAF_WEIGHTED	53251	0.4165	62671001	62671001	0.0000	1.9987
chr10	120046001	120141000	5.4029	3	1.0000	1.0000	NONE	NONE	BAF_WEIGHTED	92	0.4150	120046001	120046001	0.0000	5.4029
chr10	120141001	133797422	3.6290	3102	1.0000	1.0000	NONE	TELOMERE	BAF_WEIGHTED	12156	0.4585	120141001	120141001	0.0000	3.6290
chr11	1	36129000	2.0217	10112	1.0000	1.0000	TELOMERE	NONE	BAF_WEIGHTED	31962	0.4090	1	1	0.0000	2.0217
chr11	36129001	36323000	0.0007	0	0.0000	1.0000	NONE	NONE	BAF_WEIGHTED	188	0.4406	36129001	36129001	0.0000	0.0007
chr11	36323001	44797000	2.0226	1779	1.0000	1.0000	NONE	NONE	BAF_WEIGHTED	7896	0.3803	36323001	36323001	0.0000	2.0226
chr11	44797001	44989000	2.7038	53	1.0000	1.0000	NONE	NONE	BAF_WEIGHTED	187	0.5176	44797001	44797001	0.0000	2.7038
chr11	44989001	52751710	1.9700	514	1.0000	1.0000	NONE	CENTROMERE	BAF_WEIGHTED	4029	0.4414	44989001	44989001	0.0000	1.9700
chr11	52751711	57891000	3.6761	192	0.5468	0.5510	CENTROMERE	NONE	BAF_WEIGHTED	2669	0.3910	52751711	52751711	1.6506	2.0254
chr11	57891001	62545000	4.6230	944	0.5781	0.5781	NONE	NONE	BAF_WEIGHTED	4097	0.4351	57891001	57891001	1.9507	2.6723
chr11	62545001	62716000	1.8539	10	1.0000	1.0000	NONE	NONE	BAF_WEIGHTED	159	0.5139	62545001	62548001	0.0000	1.8539
chr11	62716001	70540000	4.4009	975	0.5739	0.5739	NONE	NONE	BAF_WEIGHTED	6407	0.5017	62716001	62716001	1.8752	2.5257
chr11	70540001	135086622	1.9962	14227	1.0000	1.0000	NONE	TELOMERE	BAF_WEIGHTED	59202	0.4092	70540001	70540001	0.0000	1.9962
chr12	1	6949000	3.0430	1581	1.0000	1.0000	TELOMERE	NONE	BAF_WEIGHTED	6376	0.4552	1	1	0.0000	3.0430
chr12	6949001	7651000	4.3455	141	0.7717	0.7717	NONE	NONE	BAF_WEIGHTED	613	0.4184	6947001	6949001	0.9921	3.3535
chr12	7651001	8019000	3.5367	141	0.7636	0.7636	NONE	NONE	BAF_WEIGHTED	312	0.4526	7651001	7652001	0.8361	2.7006
chr12	8019001	11928000	4.2208	535	0.7658	0.7658	NONE	NONE	BAF_WEIGHTED	2887	0.3934	8019001	8019001	0.9886	3.2322
chr12	11928001	12116000	6.4118	82	0.8527	0.8527	NONE	NONE	BAF_WEIGHTED	172	0.4407	11928001	11928001	0.9445	5.4673
chr12	12116001	20331000	4.1959	1925	0.7715	0.7715	NONE	NONE	BAF_WEIGHTED	7840	0.3832	12116001	12116001	0.9590	3.2370
chr12	20331001	22341000	5.1510	615	0.8080	0.8080	NONE	NONE	BAF_WEIGHTED	1858	0.3658	20331001	20333001	0.9891	4.1619
chr12	22341001	23953000	4.1507	339	0.7679	0.7679	NONE	NONE	BAF_WEIGHTED	1509	0.3647	22341001	22348001	0.9634	3.1874
chr12	23953001	26582000	5.1744	568	0.5996	0.5996	NONE	NONE	BAF_WEIGHTED	2529	0.3850	23953001	23953001	2.0718	3.1027
chr12	26582001	35977329	2.9982	2775	0.6711	0.6711	NONE	CENTROMERE	BAF_WEIGHTED	6916	0.3972	26582001	26582001	0.9861	2.0121
chr12	35977330	133275309	1.9835	19271	1.0000	1.0000	CENTROMERE	TELOMERE	BAF_WEIGHTED	89080	0.4084	35977330	35977330	0.0000	1.9835
chr13	1	17025623	2.7414	0	0.0000	0.6569	TELOMERE	CENTROMERE	LONG_ARM	0	0.0000	1	1	0.9404	1.8009
chr13	17025624	32308000	2.7414	3403	0.6569	0.6569	CENTROMERE	NONE	BAF_WEIGHTED	12175	0.4174	1	17025624	0.9404	1.8009
chr13	32308001	36427000	4.7624	1133	0.7958	0.7958	NONE	NONE	BAF_WEIGHTED	3950	0.3852	32308001	32308001	0.9725	3.7899
chr13	36427001	37196000	2.8150	260	0.6667	0.6667	NONE	NONE	BAF_WEIGHTED	740	0.3926	36427001	36427001	0.9382	1.8768
chr13	37196001	49009000	4.0574	2434	0.5382	0.5126	NONE	NONE	BAF_WEIGHTED	11111	0.3939	37196001	37196001	1.9775	2.0799
chr13	49009001	52689000	1.9205	720	1.0000	1.0000	NONE	NONE	BAF_WEIGHTED	3167	0.4058	49009001	49009001	0.0000	1.9205
chr13	52689001	60966000	0.0007	24	1.0000	1.0000	NONE	NONE	BAF_WEIGHTED	7872	0.3590	52689001	52689001	0.0000	0.0007
chr13	60966001	114364328	1.9226	11559	1.0000	1.0000	NONE	TELOMERE	BAF_WEIGHTED	50223	0.3746	60966001	60966001	0.0000	1.9226
chr14	1	17086761	3.8551	0	0.0000	0.5235	TELOMERE	CENTROMERE	LONG_ARM	0	0.0000	1	1	1.8369	2.0182
chr14	17086762	24381000	3.8551	973	0.5370	0.5235	CENTROMERE	NONE	BAF_WEIGHTED	3937	0.4341	17086762	17086762	1.8369	2.0182
chr14	24381001	35854000	2.9889	2062	0.6642	0.6642	NONE	NONE	BAF_WEIGHTED	10695	0.3800	24381001	24381001	1.0036	1.9854
chr14	35854001	36141000	4.0469	112	0.5395	0.5290	NONE	NONE	BAF_WEIGHTED	271	0.3873	35854001	35854001	1.9060	2.1409
chr14	36141001	45765000	2.1430	1509	1.0000	1.0000	NONE	NONE	BAF_WEIGHTED	8874	0.3627	36141001	36141001	0.0000	2.1430
chr14	45765001	58868000	4.0942	2872	0.5404	0.5125	NONE	NONE	BAF_WEIGHTED	12281	0.3886	45765001	45765001	1.9958	2.0984
chr14	58868001	60324000	3.2424	497	0.6763	0.6763	NONE	NONE	BAF_WEIGHTED	1372	0.3879	58868001	58868001	1.0496	2.1928
chr14	60324001	64983000	2.1558	662	0.9996	0.9996	NONE	NONE	BAF_WEIGHTED	4379	0.4026	60324001	60324001	0.0009	2.1550
chr14	64983001	69540000	3.1642	661	0.6787	0.6787	NONE	NONE	BAF_WEIGHTED	4254	0.4165	64983001	64983001	1.0167	2.1474
chr14	69540001	74938000	2.1029	1291	1.0000	1.0000	NONE	NONE	BAF_WEIGHTED	5079	0.4337	69540001	69540001	0.0000	2.1029
chr14	74938001	81724000	3.8821	1117	1.0000	1.0000	NONE	NONE	BAF_WEIGHTED	6527	0.4195	74938001	74938001	0.0000	3.8821
chr14	81724001	84198000	4.8874	580	0.7967	0.7967	NONE	NONE	BAF_WEIGHTED	2398	0.3578	81724001	81724001	0.9936	3.8937
chr14	84198001	96383000	5.6686	2216	0.8267	0.8267	NONE	NONE	BAF_WEIGHTED	11647	0.4200	84198001	84198001	0.9821	4.6865
chr14	96383001	96604000	4.5847	5	0.7961	0.7961	NONE	NONE	BAF_WEIGHTED	209	0.4224	96383001	96383001	0.9348	3.6499
chr14	96604001	97755000	5.7841	129	0.6646	0.6646	NONE	NONE	BAF_WEIGHTED	1111	0.4288	96604001	96604001	1.9402	3.8439
chr14	97755001	101099000	3.7973	937	1.0000	1.0000	NONE	NONE	BAF_WEIGHTED	3127	0.4611	97755001	97755001	0.0000	3.7973
chr14	101099001	107043718	2.8092	808	0.9994	0.9994	NONE	TELOMERE	BAF_WEIGHTED	3876	0.4923	101099001	101099001	0.0016	2.8076
chr15	1	18362626	1.9852	0	0.0000	0.9998	TELOMERE	CENTROMERE	LONG_ARM	0	0.0000	1	1	0.0004	1.9848
chr15	18362627	55611000	1.9852	7507	0.9998	0.9998	CENTROMERE	NONE	BAF_WEIGHTED	27904	0.4079	18362627	18362627	0.0004	1.9848
chr15	55611001	77669000	3.7043	4665	0.5459	0.5346	NONE	NONE	BAF_WEIGHTED	20711	0.4309	55611001	55611001	1.7238	1.9805
chr15	77669001	82661000	2.5754	837	0.7489	0.7489	NONE	NONE	BAF_WEIGHTED	4262	0.4404	77669001	77669001	0.6467	1.9287
chr15	82661001	91384000	3.7354	1695	0.7753	0.7753	NONE	NONE	BAF_WEIGHTED	7623	0.4333	82661001	82661001	0.8392	2.8961
chr15	91384001	101991189	4.7592	3073	0.7982	0.7982	NONE	TELOMERE	BAF_WEIGHTED	9894	0.4157	91384001	91384001	0.9606	3.7986
chr16	1	960000	2.0203	224	0.8889	0.8889	TELOMERE	NONE	BAF_WEIGHTED	539	0.5709	1	1	0.2244	1.7958
chr16	960001	10074000	2.8561	2518	0.6640	0.6640	NONE	NONE	BAF_WEIGHTED	7645	0.4683	960001	963001	0.9597	1.8964
chr16	10074001	19179000	4.6362	2072	0.7923	0.7923	NONE	NONE	BAF_WEIGHTED	6760	0.4501	10074001	10074001	0.9629	3.6734
chr16	19179001	22419000	5.4997	357	0.6574	0.6574	NONE	NONE	BAF_WEIGHTED	2362	0.4385	19179001	19179001	1.8843	3.6155
chr16	22419001	37295919	3.6110	1884	0.5445	0.5520	NONE	CENTROMERE	BAF_WEIGHTED	7643	0.4579	22419001	22614001	1.6176	1.9934
chr16	37295920	79253000	2.7958	2	0.7248	0.7248	CENTROMERE	NONE	BAF_WEIGHTED	30303	0.4227	37295920	37295920	0.7696	2.0263
chr16	79253001	90338345	3.7970	0	0.0000	0.7973	NONE	TELOMERE	BAF_WEIGHTED	9370	0.4792	79253001	79253001	0.7696	3.0275
chr17	1	19023000	2.8672	5102	1.0000	1.0000	TELOMERE	NONE	BAF_WEIGHTED	16280	0.4625	1	1	0.0000	2.8672
chr17	19023001	24849829	1.9284	389	1.0000	1.0000	NONE	CENTROMERE	BAF_WEIGHTED	1855	0.4523	19023001	19023001	0.0000	1.9284
chr17	24849830	67223000	1.9606	6947	1.0000	1.0000	CENTROMERE	NONE	BAF_WEIGHTED	35206	0.4424	24849830	24849830	0.0000	1.9606
chr17	67223001	72716000	4.9461	1043	1.0000	1.0000	NONE	NONE	BAF_WEIGHTED	5228	0.4060	67223001	67223001	0.0000	4.9461
chr17	72716001	79974000	3.6070	1643	1.0000	1.0000	NONE	NONE	BAF_WEIGHTED	6530	0.5083	72716001	72716001	0.0000	3.6070
chr17	79974001	82685000	4.4747	729	1.0000	1.0000	NONE	NONE	BAF_WEIGHTED	1915	0.5424	79974001	79974001	0.0000	4.4747
chr17	82685001	83257441	3.3466	182	1.0000	1.0000	NONE	TELOMERE	BAF_WEIGHTED	394	0.5298	82685001	82685001	0.0000	3.3466
chr18	1	11458000	2.0724	3154	1.0000	1.0000	TELOMERE	NONE	BAF_WEIGHTED	10682	0.4037	1	1	0.0000	2.0724
chr18	11458001	11568000	6.0211	0	0.0000	0.6558	NONE	NONE	BAF_WEIGHTED	104	0.4138	11458001	11458001	2.0724	3.9488
chr18	11568001	18161052	3.8338	668	0.5394	0.5217	NONE	CENTROMERE	BAF_WEIGHTED	2330	0.4373	11568001	11568001	1.8338	2.0000
chr18	18161053	53630000	4.0057	6587	0.5361	0.5071	CENTROMERE	NONE	BAF_WEIGHTED	31151	0.3940	18161053	18161053	1.9743	2.0314
chr18	53630001	57622000	6.0114	315	0.6615	0.6615	NONE	NONE	BAF_WEIGHTED	3811	0.3890	53630001	53630001	2.0347	3.9767
chr18	57622001	57745000	4.5725	0	0.0000	0.5550	NONE	NONE	BAF_WEIGHTED	112	0.4326	57622001	57622001	2.0347	2.5378
chr18	57745001	58733000	3.0231	246	1.0000	1.0000	NONE	NONE	BAF_WEIGHTED	963	0.4320	57745001	57745001	0.0000	3.0231
chr18	58733001	80373285	1.0089	5189	0.9925	0.9959	NONE	TELOMERE	BAF_WEIGHTED	20333	0.3917	58733001	58733001	0.0042	1.0047
chr19	1	11983000	1.7992	2453	1.0000	1.0000	TELOMERE	NONE	BAF_WEIGHTED	9380	0.5217	1	1	0.0000	1.7992
chr19	11983001	16959000	3.7686	1065	0.5397	0.5309	NONE	NONE	BAF_WEIGHTED	4394	0.4923	11983001	11983001	1.7679	2.0007
chr19	16959001	17385000	1.8453	133	1.0000	1.0000	NONE	NONE	BAF_WEIGHTED	378	0.5287	16959001	16959001	0.0000	1.8453
chr19	17385001	25844926	3.4091	1317	0.5756	0.5756	NONE	CENTROMERE	BAF_WEIGHTED	5821	0.4521	17385001	17385001	1.4467	1.9624
chr19	25844927	38634000	3.3553	2706	0.5602	0.5607	CENTROMERE	NONE	BAF_WEIGHTED	10366	0.4562	25844927	25844927	1.4741	1.8813
chr19	38634001	48761000	1.8867	1899	1.0000	1.0000	NONE	NONE	BAF_WEIGHTED	8249	0.4919	38634001	38634001	0.0000	1.8867
chr19	48761001	49404000	0.9438	90	1.0000	1.0000	NONE	NONE	BAF_WEIGHTED	533	0.5096	48761001	48762001	0.0000	0.9438
chr19	49404001	58617616	1.8564	1924	1.0000	1.0000	NONE	TELOMERE	BAF_WEIGHTED	7647	0.4775	49404001	49404001	0.0000	1.8564
chr20	1	13630000	2.6297	3397	0.6108	0.6108	TELOMERE	NONE	BAF_WEIGHTED	12830	0.4151	1	1	1.0236	1.6061
chr20	13630001	14539000	3.5295	130	0.5537	0.5537	NONE	NONE	BAF_WEIGHTED	874	0.3831	13630001	13630001	1.5752	1.9543
chr20	14539001	28237289	2.5545	2509	0.6115	0.6115	NONE	CENTROMERE	BAF_WEIGHTED	10563	0.4239	14539001	14539001	0.9924	1.5621
chr20	28237290	33963000	2.4311	314	0.6186	0.6186	CENTROMERE	NONE	BAF_WEIGHTED	2525	0.4754	28237290	28237290	0.9272	1.5040
chr20	33963001	44507000	3.1617	1217	0.5521	0.5550	NONE	NONE	BAF_WEIGHTED	10064	0.4474	33963001	33963001	1.4071	1.7547
chr20	44507001	64444167	4.0300	4331	0.5886	0.5886	NONE	TELOMERE	BAF_WEIGHTED	18024	0.4599	44507001	44507001	1.6578	2.3722
chr21	1	11890183	2.1700	0	0.0000	0.5413	TELOMERE	CENTROMERE	LONG_ARM	19	0.3938	1	1	0.9954	1.1746
chr21	11890184	36950000	2.1700	5868	0.5507	0.5413	CENTROMERE	NONE	BAF_WEIGHTED	21742	0.3827	11890184	11890184	0.9954	1.1746
chr21	36950001	38895000	1.0533	696	1.0000	1.0000	NONE	NONE	BAF_WEIGHTED	1879	0.4223	36950001	36950001	0.0000	1.0533
chr21	38895001	45710000	1.9779	1933	0.5524	0.5197	NONE	NONE	BAF_WEIGHTED	5476	0.4711	38895001	38895001	0.9500	1.0279
chr21	45710001	46709983	3.0753	343	0.6721	0.6721	NONE	TELOMERE	BAF_WEIGHTED	786	0.4954	45710001	45711001	1.0084	2.0669
chr22	1	14004552	1.9081	0	0.0000	1.0000	TELOMERE	CENTROMERE	LONG_ARM	0	0.6845	1	1	0.0000	1.9081
chr22	14004553	22683000	1.9081	1114	1.0000	1.0000	CENTROMERE	NONE	BAF_WEIGHTED	3783	0.4833	14004553	14004553	0.0000	1.9081
chr22	22683001	36089000	4.6354	2684	0.5655	0.5655	NONE	NONE	BAF_WEIGHTED	12029	0.4583	22683001	22683001	2.0139	2.6214
chr22	36089001	36419000	1.9852	84	1.0000	1.0000	NONE	NONE	BAF_WEIGHTED	298	0.4895	36089001	36092001	0.0000	1.9852
chr22	36419001	37135000	4.5187	132	0.5775	0.5775	NONE	NONE	BAF_WEIGHTED	679	0.4990	36419001	36419001	1.9092	2.6095
chr22	37135001	37668000	5.4152	259	0.6476	0.6476	NONE	NONE	BAF_WEIGHTED	461	0.5428	37135001	37135001	1.9085	3.5068
chr22	37668001	47089000	3.4792	2406	1.0000	1.0000	NONE	NONE	BAF_WEIGHTED	8350	0.4967	37668001	37668001	0.0000	3.4792
chr22	47089001	50818468	4.2799	1036	1.0000	1.0000	NONE	TELOMERE	BAF_WEIGHTED	3023	0.5042	47089001	47089001	0.0000	4.2799
chrX	1	1472000	3.0949	0	0.0000	1.0000	TELOMERE	NONE	BAF_WEIGHTED	945	0.4858	1	1	0.0000	3.0949
chrX	1472001	3583000	3.5277	0	0.0000	1.0000	NONE	NONE	BAF_WEIGHTED	1674	0.4476	1472001	1472001	0.0000	3.5277
chrX	3583001	11303000	1.9699	0	0.0000	1.0000	NONE	NONE	BAF_WEIGHTED	7104	0.3997	3583001	3583001	0.0000	1.9699
chrX	11303001	31253000	1.0253	0	0.0000	1.0000	NONE	NONE	BAF_WEIGHTED	18728	0.3918	11303001	11303001	0.0000	1.0253
chrX	31253001	31654000	0.0004	0	0.0000	1.0000	NONE	NONE	BAF_WEIGHTED	375	0.3774	31253001	31253001	0.0000	0.0004
chrX	31654001	56549000	1.0108	0	0.0000	1.0000	NONE	NONE	BAF_WEIGHTED	21577	0.4021	31654001	31654001	0.0000	1.0108
chrX	56549001	57011000	2.0136	0	0.0000	1.0000	NONE	NONE	BAF_WEIGHTED	364	0.3977	56549001	56551001	0.0000	2.0136
chrX	57011001	60509060	1.0014	0	0.0000	1.0000	NONE	CENTROMERE	BAF_WEIGHTED	1212	0.3921	57011001	57015001	0.0000	1.0014
chrX	60509061	63402000	2.0116	0	0.0000	1.0000	CENTROMERE	NONE	BAF_WEIGHTED	628	0.3710	60509061	60509061	0.0000	2.0116
chrX	63402001	83833000	1.0059	0	0.0000	1.0000	NONE	NONE	BAF_WEIGHTED	17333	0.3914	63402001	63402001	0.0000	1.0059
chrX	83833001	85391000	0.0004	0	0.0000	1.0000	NONE	NONE	BAF_WEIGHTED	1413	0.3604	83833001	83833001	0.0000	0.0004
chrX	85391001	156040895	2.0012	0	0.0000	1.0000	NONE	TELOMERE	BAF_WEIGHTED	59210	0.3867	85391001	85391001	0.0000	2.0012
